<?xml version="1.0" encoding="UTF-8" standalone="no"?>
<svg
   width="128mm"
   height="76mm"
   viewBox="0 0 12800 7600"
   version="1.1"
   stroke-width="28.222"
   stroke-linejoin="round"
   xml:space="preserve"
   id="svg392"
   sodipodi:docname="proportion-filtered-plasmodium.svg"
   inkscape:version="1.1 (1:1.1+202105261517+ce6663b3b7)"
   xmlns:inkscape="http://www.inkscape.org/namespaces/inkscape"
   xmlns:sodipodi="http://sodipodi.sourceforge.net/DTD/sodipodi-0.dtd"
   xmlns="http://www.w3.org/2000/svg"
   xmlns:svg="http://www.w3.org/2000/svg"><defs
   id="defs396" /><sodipodi:namedview
   id="namedview394"
   pagecolor="#ffffff"
   bordercolor="#666666"
   borderopacity="1.0"
   inkscape:pageshadow="2"
   inkscape:pageopacity="0.0"
   inkscape:pagecheckerboard="0"
   inkscape:document-units="mm"
   showgrid="false"
   inkscape:snap-bbox="true"
   inkscape:snap-bbox-midpoints="true"
   inkscape:zoom="1.2092285"
   inkscape:cx="143.47991"
   inkscape:cy="178.2128"
   inkscape:window-width="1276"
   inkscape:window-height="976"
   inkscape:window-x="1088"
   inkscape:window-y="482"
   inkscape:window-maximized="0"
   inkscape:current-layer="svg392"
   inkscape:snap-global="false" />
 <path
   fill="rgb(255,255,255)"
   stroke="none"
   d="M 6397,7606 L 13,7606 13,13 12780,13 12780,7606 6397,7606 Z"
   id="path2" />
 
 <path
   fill="none"
   stroke="rgb(217,217,217)"
   stroke-width="26"
   stroke-linejoin="round"
   d="M 1362,1104 L 1362,6601"
   id="path6" />
 
 <path
   fill="none"
   stroke="rgb(217,217,217)"
   stroke-width="26"
   stroke-linejoin="round"
   d="M 8658,1104 L 8658,6601"
   id="path10" />
 <path
   fill="none"
   stroke="rgb(217,217,217)"
   stroke-width="26"
   stroke-linejoin="round"
   d="M 12305,1104 L 12305,6601"
   id="path12" />
 <path
   fill="none"
   stroke="rgb(217,217,217)"
   stroke-width="26"
   stroke-linejoin="round"
   d="M 12305,6601 L 1362,6601"
   id="path14" />
 <path
   fill="none"
   stroke="rgb(217,217,217)"
   stroke-width="26"
   stroke-linejoin="round"
   d="M 12305,6051 L 1362,6051"
   id="path16" />
 <path
   fill="none"
   stroke="rgb(217,217,217)"
   stroke-width="26"
   stroke-linejoin="round"
   d="M 12305,5501 L 1362,5501"
   id="path18" />
 <path
   fill="none"
   stroke="rgb(217,217,217)"
   stroke-width="26"
   stroke-linejoin="round"
   d="M 12305,4951 L 1362,4951"
   id="path20" />
 <path
   fill="none"
   stroke="rgb(217,217,217)"
   stroke-width="26"
   stroke-linejoin="round"
   d="M 12305,4401 L 1362,4401"
   id="path22" />
 <path
   fill="none"
   stroke="rgb(217,217,217)"
   stroke-width="26"
   stroke-linejoin="round"
   d="M 12305,3852 L 1362,3852"
   id="path24" />
 <path
   fill="none"
   stroke="rgb(217,217,217)"
   stroke-width="26"
   stroke-linejoin="round"
   d="M 12305,3302 L 1362,3302"
   id="path26" />
 <path
   fill="none"
   stroke="rgb(217,217,217)"
   stroke-width="26"
   stroke-linejoin="round"
   d="M 12305,2752 L 1362,2752"
   id="path28" />
 <path
   fill="none"
   stroke="rgb(217,217,217)"
   stroke-width="26"
   stroke-linejoin="round"
   d="M 12305,2203 L 1362,2203"
   id="path30" />
 <path
   fill="none"
   stroke="rgb(217,217,217)"
   stroke-width="26"
   stroke-linejoin="round"
   d="M 12305,1653 L 1362,1653"
   id="path32" />
 <path
   fill="none"
   stroke="rgb(217,217,217)"
   stroke-width="26"
   stroke-linejoin="round"
   d="M 12305,1104 L 1362,1104"
   id="path34" />
 <path
   fill="none"
   stroke="rgb(191,191,191)"
   stroke-width="26"
   stroke-linejoin="round"
   d="M 1362,6601 L 12305,6601"
   id="path36" />
 <path
   fill="none"
   stroke="rgb(191,191,191)"
   stroke-width="26"
   stroke-linejoin="round"
   d="M 1362,6601 L 1362,1104"
   id="path38" />
 <path
   fill="none"
   stroke="rgb(112,173,71)"
   stroke-width="53"
   stroke-linejoin="round"
   d="M 12305,1104 H 11206 10853 10397 9755 9299 8658 7559 5010 4445 3912 2461 1362 v 5497 h 10943 z"
   id="path148"
   style="font-variation-settings:normal;opacity:1;vector-effect:none;fill:#70ad47;fill-opacity:1;stroke:#70ad47;stroke-width:52.99999994;stroke-linecap:butt;stroke-linejoin:round;stroke-miterlimit:4;stroke-dasharray:none;stroke-dashoffset:0;stroke-opacity:1;-inkscape-stroke:none;stop-color:#000000;stop-opacity:1" /><path
   fill="none"
   stroke="rgb(168,208,141)"
   stroke-width="53"
   stroke-linejoin="round"
   d="m 12305,1104 -1099,1227 -353,623 -456,650 -642,740 -456,412 -641,442 -1099,317 -2549,482 -565,81 -533,88 -1451,109 -1099,326 h 10943 z"
   id="path94"
   style="font-variation-settings:normal;opacity:1;vector-effect:none;fill:#ffc000;fill-opacity:1;stroke:#ffc000;stroke-width:52.99999994;stroke-linecap:butt;stroke-linejoin:round;stroke-miterlimit:4;stroke-dasharray:none;stroke-dashoffset:0;stroke-opacity:1;-inkscape-stroke:none;stop-color:#000000;stop-opacity:1" /><path
   fill="none"
   stroke="rgb(255,101,102)"
   stroke-width="53"
   stroke-linejoin="round"
   d="m 12305,1104 -1099,2473 -353,820 -456,523 -642,595 -456,177 -641,237 -1099,190 -2549,176 -565,41 -533,33 -1451,68 -1099,164 h 10943 z"
   id="path40"
   style="font-variation-settings:normal;opacity:1;vector-effect:none;fill:#bf0000;fill-opacity:1;stroke:#bf0000;stroke-width:52.99999994;stroke-linecap:butt;stroke-linejoin:round;stroke-miterlimit:4;stroke-dasharray:none;stroke-dashoffset:0;stroke-opacity:1;-inkscape-stroke:none;stop-color:#000000;stop-opacity:1" />
 
 
 
 
 
 
 
 
 
 
 
 
 
 
 
 
 
 
 
 
 
 
 
 
 
 
 
 
 
 
 
 
 
 
 
 
 
 
 
 
 
 
 
 
 
 
 
 
 
 
 
 
 
 
 
 
 
 
 
 
 
 
 
 
 
 
 
 
 
 
 
 
 
 
 
 
 
 
 
 
 <text
   class="TextShape"
   id="text208"><tspan
     class="TextParagraph"
     font-family="Calibri, sans-serif"
     font-size="317px"
     font-weight="400"
     id="tspan206"><tspan
       class="TextPosition"
       x="1006"
       y="7087"
       id="tspan204"><tspan
         fill="rgb(89,89,89)"
         stroke="none"
         id="tspan202">0.001</tspan></tspan></tspan></text>
 <text
   class="TextShape"
   id="text216"><tspan
     class="TextParagraph"
     font-family="Calibri, sans-serif"
     font-size="317px"
     font-weight="400"
     id="tspan214"><tspan
       class="TextPosition"
       x="4733"
       y="7087"
       id="tspan212"><tspan
         fill="rgb(89,89,89)"
         stroke="none"
         id="tspan210">0.01</tspan></tspan></tspan></text>
 <text
   class="TextShape"
   id="text224"><tspan
     class="TextParagraph"
     font-family="Calibri, sans-serif"
     font-size="317px"
     font-weight="400"
     id="tspan222"><tspan
       class="TextPosition"
       x="8460"
       y="7087"
       id="tspan220"><tspan
         fill="rgb(89,89,89)"
         stroke="none"
         id="tspan218">0.1</tspan></tspan></tspan></text>
 <text
   class="TextShape"
   id="text232"><tspan
     class="TextParagraph"
     font-family="Calibri, sans-serif"
     font-size="317px"
     font-weight="400"
     id="tspan230"><tspan
       class="TextPosition"
       x="12226"
       y="7087"
       id="tspan228"><tspan
         fill="rgb(89,89,89)"
         stroke="none"
         id="tspan226">1</tspan></tspan></tspan></text>
 <text
   class="TextShape"
   id="text240"><tspan
     class="TextParagraph"
     font-family="Calibri, sans-serif"
     font-size="317px"
     font-weight="400"
     id="tspan238"><tspan
       class="TextPosition"
       x="954"
       y="6680"
       id="tspan236"><tspan
         fill="rgb(89,89,89)"
         stroke="none"
         id="tspan234">0</tspan></tspan></tspan></text>
 <text
   class="TextShape"
   id="text248"><tspan
     class="TextParagraph"
     font-family="Calibri, sans-serif"
     font-size="317px"
     font-weight="400"
     id="tspan246"><tspan
       class="TextPosition"
       x="716"
       y="6130"
       id="tspan244"><tspan
         fill="rgb(89,89,89)"
         stroke="none"
         id="tspan242">0.1</tspan></tspan></tspan></text>
 <text
   class="TextShape"
   id="text256"><tspan
     class="TextParagraph"
     font-family="Calibri, sans-serif"
     font-size="317px"
     font-weight="400"
     id="tspan254"><tspan
       class="TextPosition"
       x="716"
       y="5580"
       id="tspan252"><tspan
         fill="rgb(89,89,89)"
         stroke="none"
         id="tspan250">0.2</tspan></tspan></tspan></text>
 <text
   class="TextShape"
   id="text264"><tspan
     class="TextParagraph"
     font-family="Calibri, sans-serif"
     font-size="317px"
     font-weight="400"
     id="tspan262"><tspan
       class="TextPosition"
       x="716"
       y="5031"
       id="tspan260"><tspan
         fill="rgb(89,89,89)"
         stroke="none"
         id="tspan258">0.3</tspan></tspan></tspan></text>
 <text
   class="TextShape"
   id="text272"><tspan
     class="TextParagraph"
     font-family="Calibri, sans-serif"
     font-size="317px"
     font-weight="400"
     id="tspan270"><tspan
       class="TextPosition"
       x="716"
       y="4481"
       id="tspan268"><tspan
         fill="rgb(89,89,89)"
         stroke="none"
         id="tspan266">0.4</tspan></tspan></tspan></text>
 <text
   class="TextShape"
   id="text280"><tspan
     class="TextParagraph"
     font-family="Calibri, sans-serif"
     font-size="317px"
     font-weight="400"
     id="tspan278"><tspan
       class="TextPosition"
       x="716"
       y="3932"
       id="tspan276"><tspan
         fill="rgb(89,89,89)"
         stroke="none"
         id="tspan274">0.5</tspan></tspan></tspan></text>
 <text
   class="TextShape"
   id="text288"><tspan
     class="TextParagraph"
     font-family="Calibri, sans-serif"
     font-size="317px"
     font-weight="400"
     id="tspan286"><tspan
       class="TextPosition"
       x="716"
       y="3382"
       id="tspan284"><tspan
         fill="rgb(89,89,89)"
         stroke="none"
         id="tspan282">0.6</tspan></tspan></tspan></text>
 <text
   class="TextShape"
   id="text296"><tspan
     class="TextParagraph"
     font-family="Calibri, sans-serif"
     font-size="317px"
     font-weight="400"
     id="tspan294"><tspan
       class="TextPosition"
       x="716"
       y="2831"
       id="tspan292"><tspan
         fill="rgb(89,89,89)"
         stroke="none"
         id="tspan290">0.7</tspan></tspan></tspan></text>
 <text
   class="TextShape"
   id="text304"><tspan
     class="TextParagraph"
     font-family="Calibri, sans-serif"
     font-size="317px"
     font-weight="400"
     id="tspan302"><tspan
       class="TextPosition"
       x="716"
       y="2282"
       id="tspan300"><tspan
         fill="rgb(89,89,89)"
         stroke="none"
         id="tspan298">0.8</tspan></tspan></tspan></text>
 <text
   class="TextShape"
   id="text312"><tspan
     class="TextParagraph"
     font-family="Calibri, sans-serif"
     font-size="317px"
     font-weight="400"
     id="tspan310"><tspan
       class="TextPosition"
       x="716"
       y="1732"
       id="tspan308"><tspan
         fill="rgb(89,89,89)"
         stroke="none"
         id="tspan306">0.9</tspan></tspan></tspan></text>
 <text
   class="TextShape"
   id="text320"><tspan
     class="TextParagraph"
     font-family="Calibri, sans-serif"
     font-size="317px"
     font-weight="400"
     id="tspan318"><tspan
       class="TextPosition"
       x="954"
       y="1183"
       id="tspan316"><tspan
         fill="rgb(89,89,89)"
         stroke="none"
         id="tspan314">1</tspan></tspan></tspan></text>
 <text
   class="TextShape"
   id="text328"><tspan
     class="TextParagraph"
     font-family="Calibri, sans-serif"
     font-size="457px"
     font-weight="400"
     id="tspan326"><tspan
       class="TextPosition"
       x="111"
       y="702"
       id="tspan324"><tspan
         fill="rgb(89,89,89)"
         stroke="none"
         id="tspan322">Proportion plasmodium proteins quantified in uninfected replicates</tspan></tspan></tspan></text>
 
 
 
 
 
 
 
 
 
 
 
 
 
 
 <text
   class="TextShape"
   id="text382"
   x="-102.1875"><tspan
     class="TextParagraph"
     font-family="Calibri, sans-serif"
     font-size="352px"
     font-weight="400"
     id="tspan380"><tspan
       class="TextPosition"
       x="3741.8125"
       y="7422"
       id="tspan378"><tspan
         fill="#595959"
         stroke="none"
         id="tspan376">Quantification FDR threshold in specific run</tspan></tspan></tspan></text>
 <text
   class="TextShape"
   transform="rotate(-90 384 7088)"
   id="text390"><tspan
     class="TextParagraph"
     font-family="Calibri, sans-serif"
     font-size="352px"
     font-weight="400"
     id="tspan388"><tspan
       class="TextPosition"
       x="384"
       y="7088"
       id="tspan386"><tspan
         fill="rgb(89,89,89)"
         stroke="none"
         id="tspan384"># quantified in sample / # globally identified</tspan></tspan></tspan></text>
<path
   fill="none"
   stroke="rgb(217,217,217)"
   stroke-width="26"
   stroke-linejoin="round"
   d="M 5009,1104 L 5009,6601"
   id="path8"
   style="stroke:#595959;stroke-opacity:1;stroke-width:99.99999779;stroke-miterlimit:4;stroke-dasharray:299.9999931,299.9999931;stroke-dashoffset:0" /><path
   fill="rgb(255,255,255)"
   stroke="none"
   d="M 3842,2903 L 1672,2903 1672,1394 6012,1394 6012,2903 3842,2903 Z"
   id="path330" /><path
   fill="none"
   stroke="rgb(89,89,89)"
   stroke-linejoin="round"
   d="M 3842,2903 L 1672,2903 1672,1394 6012,1394 6012,2903 3842,2903 Z"
   id="path332" /><path
   fill="none"
   stroke="rgb(112,173,71)"
   stroke-width="53"
   stroke-linejoin="round"
   d="M 1861,1691 L 2659,1691"
   id="path334" /><path
   fill="rgb(112,173,71)"
   stroke="none"
   d="M 2355,1691 L 2354,1686 2354,1682 2354,1678 2353,1674 2352,1670 2351,1666 2350,1662 2349,1658 2347,1654 2346,1650 2344,1647 2342,1643 2340,1639 2337,1636 2335,1633 2332,1629 2330,1626 2327,1623 2324,1620 2321,1618 2317,1615 2314,1613 2311,1610 2307,1608 2303,1606 2300,1604 2296,1603 2292,1601 2288,1600 2284,1599 2280,1598 2276,1597 2272,1596 2268,1596 2264,1596 2260,1596 2255,1596 2251,1596 2247,1596 2243,1597 2239,1598 2235,1599 2231,1600 2227,1601 2223,1603 2219,1604 2216,1606 2212,1608 2208,1610 2205,1613 2202,1615 2198,1618 2195,1620 2192,1623 2189,1626 2187,1629 2184,1633 2182,1636 2179,1639 2177,1643 2175,1647 2173,1650 2172,1654 2170,1658 2169,1662 2168,1666 2167,1670 2166,1674 2165,1678 2165,1682 2165,1686 2165,1691 2165,1695 2165,1699 2165,1703 2166,1707 2167,1711 2168,1715 2169,1719 2170,1723 2172,1727 2173,1731 2175,1734 2177,1738 2179,1742 2182,1745 2184,1748 2187,1752 2189,1755 2192,1758 2195,1761 2198,1763 2202,1766 2205,1768 2208,1771 2212,1773 2216,1775 2219,1777 2223,1778 2227,1780 2231,1781 2235,1782 2239,1783 2243,1784 2247,1785 2251,1785 2255,1785 2260,1786 2264,1785 2268,1785 2272,1785 2276,1784 2280,1783 2284,1782 2288,1781 2292,1780 2296,1778 2300,1777 2303,1775 2307,1773 2311,1771 2314,1768 2317,1766 2321,1763 2324,1761 2327,1758 2330,1755 2332,1752 2335,1748 2337,1745 2340,1742 2342,1738 2344,1734 2346,1731 2347,1727 2349,1723 2350,1719 2351,1715 2352,1711 2353,1707 2354,1703 2354,1699 2354,1695 2355,1691 Z"
   id="path336" /><path
   fill="none"
   stroke="rgb(112,173,71)"
   stroke-linejoin="round"
   d="M 2355,1691 L 2354,1686 2354,1682 2354,1678 2353,1674 2352,1670 2351,1666 2350,1662 2349,1658 2347,1654 2346,1650 2344,1647 2342,1643 2340,1639 2337,1636 2335,1633 2332,1629 2330,1626 2327,1623 2324,1620 2321,1618 2317,1615 2314,1613 2311,1610 2307,1608 2303,1606 2300,1604 2296,1603 2292,1601 2288,1600 2284,1599 2280,1598 2276,1597 2272,1596 2268,1596 2264,1596 2260,1596 2255,1596 2251,1596 2247,1596 2243,1597 2239,1598 2235,1599 2231,1600 2227,1601 2223,1603 2219,1604 2216,1606 2212,1608 2208,1610 2205,1613 2202,1615 2198,1618 2195,1620 2192,1623 2189,1626 2187,1629 2184,1633 2182,1636 2179,1639 2177,1643 2175,1647 2173,1650 2172,1654 2170,1658 2169,1662 2168,1666 2167,1670 2166,1674 2165,1678 2165,1682 2165,1686 2165,1691 2165,1695 2165,1699 2165,1703 2166,1707 2167,1711 2168,1715 2169,1719 2170,1723 2172,1727 2173,1731 2175,1734 2177,1738 2179,1742 2182,1745 2184,1748 2187,1752 2189,1755 2192,1758 2195,1761 2198,1763 2202,1766 2205,1768 2208,1771 2212,1773 2216,1775 2219,1777 2223,1778 2227,1780 2231,1781 2235,1782 2239,1783 2243,1784 2247,1785 2251,1785 2255,1785 2260,1786 2264,1785 2268,1785 2272,1785 2276,1784 2280,1783 2284,1782 2288,1781 2292,1780 2296,1778 2300,1777 2303,1775 2307,1773 2311,1771 2314,1768 2317,1766 2321,1763 2324,1761 2327,1758 2330,1755 2332,1752 2335,1748 2337,1745 2340,1742 2342,1738 2344,1734 2346,1731 2347,1727 2349,1723 2350,1719 2351,1715 2352,1711 2353,1707 2354,1703 2354,1699 2354,1695 2355,1691 Z"
   id="path338" /><path
   fill="none"
   stroke="rgb(168,208,141)"
   stroke-width="53"
   stroke-linejoin="round"
   d="M 1861,2147 L 2659,2147"
   id="path340" /><path
   fill="rgb(168,208,141)"
   stroke="none"
   d="M 2355,2147 L 2354,2142 2354,2138 2354,2134 2353,2130 2352,2126 2351,2122 2350,2118 2349,2115 2347,2111 2346,2107 2344,2104 2342,2100 2340,2096 2337,2093 2335,2090 2332,2086 2330,2083 2327,2080 2324,2077 2321,2075 2317,2072 2314,2070 2311,2067 2307,2065 2303,2063 2300,2061 2296,2060 2292,2058 2288,2057 2284,2056 2280,2055 2276,2054 2272,2053 2268,2053 2264,2053 2260,2053 2255,2053 2251,2053 2247,2053 2243,2054 2239,2055 2235,2056 2231,2057 2227,2058 2223,2060 2219,2061 2216,2063 2212,2065 2208,2067 2205,2070 2202,2072 2198,2075 2195,2077 2192,2080 2189,2083 2187,2086 2184,2090 2182,2093 2179,2096 2177,2100 2175,2104 2173,2107 2172,2111 2170,2115 2169,2118 2168,2122 2167,2126 2166,2130 2165,2134 2165,2138 2165,2142 2165,2147 2165,2151 2165,2155 2165,2159 2166,2163 2167,2167 2168,2171 2169,2175 2170,2179 2172,2183 2173,2187 2175,2190 2177,2194 2179,2198 2182,2201 2184,2204 2187,2208 2189,2211 2192,2214 2195,2217 2198,2219 2202,2222 2205,2224 2208,2227 2212,2229 2216,2231 2219,2233 2223,2234 2227,2236 2231,2237 2235,2238 2239,2239 2243,2240 2247,2241 2251,2241 2255,2241 2260,2242 2264,2241 2268,2241 2272,2241 2276,2240 2280,2239 2284,2238 2288,2237 2292,2236 2296,2234 2300,2233 2303,2231 2307,2229 2311,2227 2314,2224 2317,2222 2321,2219 2324,2217 2327,2214 2330,2211 2332,2208 2335,2204 2337,2201 2340,2198 2342,2194 2344,2190 2346,2187 2347,2183 2349,2179 2350,2175 2351,2171 2352,2167 2353,2163 2354,2159 2354,2155 2354,2151 2355,2147 Z"
   id="path342" /><path
   fill="none"
   stroke="rgb(168,208,141)"
   stroke-linejoin="round"
   d="M 2355,2147 L 2354,2142 2354,2138 2354,2134 2353,2130 2352,2126 2351,2122 2350,2118 2349,2115 2347,2111 2346,2107 2344,2104 2342,2100 2340,2096 2337,2093 2335,2090 2332,2086 2330,2083 2327,2080 2324,2077 2321,2075 2317,2072 2314,2070 2311,2067 2307,2065 2303,2063 2300,2061 2296,2060 2292,2058 2288,2057 2284,2056 2280,2055 2276,2054 2272,2053 2268,2053 2264,2053 2260,2053 2255,2053 2251,2053 2247,2053 2243,2054 2239,2055 2235,2056 2231,2057 2227,2058 2223,2060 2219,2061 2216,2063 2212,2065 2208,2067 2205,2070 2202,2072 2198,2075 2195,2077 2192,2080 2189,2083 2187,2086 2184,2090 2182,2093 2179,2096 2177,2100 2175,2104 2173,2107 2172,2111 2170,2115 2169,2118 2168,2122 2167,2126 2166,2130 2165,2134 2165,2138 2165,2142 2165,2147 2165,2151 2165,2155 2165,2159 2166,2163 2167,2167 2168,2171 2169,2175 2170,2179 2172,2183 2173,2187 2175,2190 2177,2194 2179,2198 2182,2201 2184,2204 2187,2208 2189,2211 2192,2214 2195,2217 2198,2219 2202,2222 2205,2224 2208,2227 2212,2229 2216,2231 2219,2233 2223,2234 2227,2236 2231,2237 2235,2238 2239,2239 2243,2240 2247,2241 2251,2241 2255,2241 2260,2242 2264,2241 2268,2241 2272,2241 2276,2240 2280,2239 2284,2238 2288,2237 2292,2236 2296,2234 2300,2233 2303,2231 2307,2229 2311,2227 2314,2224 2317,2222 2321,2219 2324,2217 2327,2214 2330,2211 2332,2208 2335,2204 2337,2201 2340,2198 2342,2194 2344,2190 2346,2187 2347,2183 2349,2179 2350,2175 2351,2171 2352,2167 2353,2163 2354,2159 2354,2155 2354,2151 2355,2147 Z"
   id="path344" /><path
   fill="none"
   stroke="rgb(255,101,102)"
   stroke-width="53"
   stroke-linejoin="round"
   d="M 1861,2604 L 2659,2604"
   id="path346" /><path
   fill="rgb(255,101,102)"
   stroke="none"
   d="M 2355,2604 L 2354,2599 2354,2595 2354,2591 2353,2587 2352,2583 2351,2579 2350,2575 2349,2571 2347,2567 2346,2563 2344,2560 2342,2556 2340,2552 2337,2549 2335,2546 2332,2542 2330,2539 2327,2536 2324,2533 2321,2531 2317,2528 2314,2526 2311,2523 2307,2521 2303,2519 2300,2517 2296,2516 2292,2514 2288,2513 2284,2512 2280,2511 2276,2510 2272,2509 2268,2509 2264,2509 2260,2509 2255,2509 2251,2509 2247,2509 2243,2510 2239,2511 2235,2512 2231,2513 2227,2514 2223,2516 2219,2517 2216,2519 2212,2521 2208,2523 2205,2526 2202,2528 2198,2531 2195,2533 2192,2536 2189,2539 2187,2542 2184,2546 2182,2549 2179,2552 2177,2556 2175,2560 2173,2563 2172,2567 2170,2571 2169,2575 2168,2579 2167,2583 2166,2587 2165,2591 2165,2595 2165,2599 2165,2604 2165,2608 2165,2612 2165,2616 2166,2620 2167,2624 2168,2628 2169,2632 2170,2636 2172,2640 2173,2644 2175,2647 2177,2651 2179,2655 2182,2658 2184,2661 2187,2665 2189,2668 2192,2671 2195,2674 2198,2676 2202,2679 2205,2681 2208,2683 2212,2685 2216,2687 2219,2689 2223,2690 2227,2692 2231,2693 2235,2694 2239,2695 2243,2696 2247,2697 2251,2697 2255,2697 2260,2698 2264,2697 2268,2697 2272,2697 2276,2696 2280,2695 2284,2694 2288,2693 2292,2692 2296,2690 2300,2689 2303,2687 2307,2685 2311,2683 2314,2681 2317,2679 2321,2676 2324,2674 2327,2671 2330,2668 2332,2665 2335,2661 2337,2658 2340,2655 2342,2651 2344,2647 2346,2644 2347,2640 2349,2636 2350,2632 2351,2628 2352,2624 2353,2620 2354,2616 2354,2612 2354,2608 2355,2604 Z"
   id="path348" /><path
   fill="none"
   stroke="rgb(255,101,102)"
   stroke-linejoin="round"
   d="M 2355,2604 L 2354,2599 2354,2595 2354,2591 2353,2587 2352,2583 2351,2579 2350,2575 2349,2571 2347,2567 2346,2563 2344,2560 2342,2556 2340,2552 2337,2549 2335,2546 2332,2542 2330,2539 2327,2536 2324,2533 2321,2531 2317,2528 2314,2526 2311,2523 2307,2521 2303,2519 2300,2517 2296,2516 2292,2514 2288,2513 2284,2512 2280,2511 2276,2510 2272,2509 2268,2509 2264,2509 2260,2509 2255,2509 2251,2509 2247,2509 2243,2510 2239,2511 2235,2512 2231,2513 2227,2514 2223,2516 2219,2517 2216,2519 2212,2521 2208,2523 2205,2526 2202,2528 2198,2531 2195,2533 2192,2536 2189,2539 2187,2542 2184,2546 2182,2549 2179,2552 2177,2556 2175,2560 2173,2563 2172,2567 2170,2571 2169,2575 2168,2579 2167,2583 2166,2587 2165,2591 2165,2595 2165,2599 2165,2604 2165,2608 2165,2612 2165,2616 2166,2620 2167,2624 2168,2628 2169,2632 2170,2636 2172,2640 2173,2644 2175,2647 2177,2651 2179,2655 2182,2658 2184,2661 2187,2665 2189,2668 2192,2671 2195,2674 2198,2676 2202,2679 2205,2681 2208,2683 2212,2685 2216,2687 2219,2689 2223,2690 2227,2692 2231,2693 2235,2694 2239,2695 2243,2696 2247,2697 2251,2697 2255,2697 2260,2698 2264,2697 2268,2697 2272,2697 2276,2696 2280,2695 2284,2694 2288,2693 2292,2692 2296,2690 2300,2689 2303,2687 2307,2685 2311,2683 2314,2681 2317,2679 2321,2676 2324,2674 2327,2671 2330,2668 2332,2665 2335,2661 2337,2658 2340,2655 2342,2651 2344,2647 2346,2644 2347,2640 2349,2636 2350,2632 2351,2628 2352,2624 2353,2620 2354,2616 2354,2612 2354,2608 2355,2604 Z"
   id="path350" /><text
   class="TextShape"
   id="text358"><tspan
     class="TextParagraph"
     font-family="Calibri, sans-serif"
     font-size="317px"
     font-weight="400"
     id="tspan356"><tspan
       class="TextPosition"
       x="2759"
       y="1770"
       id="tspan354"><tspan
         fill="rgb(89,89,89)"
         stroke="none"
         id="tspan352">Missing in all replicates</tspan></tspan></tspan></text><text
   class="TextShape"
   id="text366"><tspan
     class="TextParagraph"
     font-family="Calibri, sans-serif"
     font-size="317px"
     font-weight="400"
     id="tspan364"><tspan
       class="TextPosition"
       x="2759"
       y="2226"
       id="tspan362"><tspan
         fill="rgb(89,89,89)"
         stroke="none"
         id="tspan360">Missing in 1 replicate</tspan></tspan></tspan></text><text
   class="TextShape"
   id="text374"><tspan
     class="TextParagraph"
     font-family="Calibri, sans-serif"
     font-size="317px"
     font-weight="400"
     id="tspan372"><tspan
       class="TextPosition"
       x="2759"
       y="2682"
       id="tspan370"><tspan
         fill="rgb(89,89,89)"
         stroke="none"
         id="tspan368">Present in all replicates</tspan></tspan></tspan></text><rect
   style="font-variation-settings:normal;vector-effect:none;fill:#ffc000;fill-opacity:1;stroke:#ffc000;stroke-width:53;stroke-linecap:butt;stroke-linejoin:round;stroke-miterlimit:4;stroke-dasharray:none;stroke-dashoffset:0;stroke-opacity:1;-inkscape-stroke:none;stop-color:#000000"
   id="rect2265"
   width="799"
   height="242.50121"
   x="1860.5"
   y="2026.2494" /><rect
   style="font-variation-settings:normal;vector-effect:none;fill:#bf0000;fill-opacity:1;stroke:#bf0000;stroke-width:53;stroke-linecap:butt;stroke-linejoin:round;stroke-miterlimit:4;stroke-dasharray:none;stroke-dashoffset:0;stroke-opacity:1;-inkscape-stroke:none;stop-color:#000000"
   id="rect2267"
   width="799"
   height="242.50121"
   x="1860.5"
   y="2482.2493" /><rect
   style="font-variation-settings:normal;vector-effect:none;fill:#70ad47;fill-opacity:1;stroke:#70ad47;stroke-width:53;stroke-linecap:butt;stroke-linejoin:round;stroke-miterlimit:4;stroke-dasharray:none;stroke-dashoffset:0;stroke-opacity:1;-inkscape-stroke:none;stop-color:#000000"
   id="rect2183"
   width="799"
   height="242.50121"
   x="1860.5"
   y="1569.7494" /><path
   style="fill:none;fill-rule:evenodd;stroke:#595959;stroke-width:100.00000123;stroke-linecap:round;stroke-linejoin:miter;stroke-miterlimit:4;stroke-dasharray:none;stroke-opacity:1"
   d="m 5195.8776,5491.0618 c -1.7815,41.9539 -1.1535,83.602 11.1048,123.6761 14.1361,32.6438 9.6782,85.1786 44.6965,101.3596 28.2754,6.2189 96.9743,-29.4026 88.9644,-26.9559 -41.4244,26.0029 41.2207,3.1451 50.9303,-11.746 32.956,-10.8179 60.2193,-29.5414 86.2866,-51.4352"
   id="path6479"
   sodipodi:nodetypes="cccccc" /><path
   style="fill:none;fill-rule:evenodd;stroke:#595959;stroke-width:100;stroke-linecap:round;stroke-linejoin:miter;stroke-miterlimit:4;stroke-dasharray:none;stroke-opacity:1"
   d="m 5294.6669,5709.9207 c -30.4735,-34.6431 -2.3284,-80.0715 16.9193,-112.4881 91.5294,-160.9096 214.5087,-300.5082 315.1309,-455.4619 33.85,-52.1276 64.8387,-107.9063 110.3779,-150.2545 14.6898,-13.6605 29.5424,-24.6143 45.2569,-35.7546"
   id="path6481"
   sodipodi:nodetypes="ccssc" /><text
   xml:space="preserve"
   style="font-size:4515.56px;line-height:100%;font-family:'Arial Black';-inkscape-font-specification:'Arial Black, ';text-align:justify;letter-spacing:0px;word-spacing:0px;writing-mode:lr-tb;fill:none;stroke:#000000;stroke-width:26.4583px;stroke-linecap:butt;stroke-linejoin:miter;stroke-opacity:1"
   x="5891.1343"
   y="3820.9946"
   id="text7650"><tspan
     sodipodi:role="line"
     id="tspan7648"
     style="stroke-width:26.4583px"></tspan></text><text
   xml:space="preserve"
   style="font-size:458.61px;line-height:100%;font-family:'Arial Black';-inkscape-font-specification:'Arial Black, ';text-align:justify;letter-spacing:0px;word-spacing:0px;writing-mode:lr-tb;fill:#595959;stroke:none;stroke-width:26.4583px;stroke-linecap:butt;stroke-linejoin:miter;stroke-opacity:1"
   x="5307.6484"
   y="4302.8203"
   id="text15536"><tspan
     sodipodi:role="line"
     id="tspan15534"
     style="font-weight:bold;fill:#595959;stroke:none;stroke-width:26.4583px;stroke-opacity:1"
     x="5307.6484"
     y="4302.8203">Should be</tspan><tspan
     sodipodi:role="line"
     style="font-weight:bold;fill:#595959;stroke:none;stroke-width:26.4583px;stroke-opacity:1"
     x="5307.6484"
     y="4761.4302"
     id="tspan20274">missing in all</tspan></text></svg>
